Ajatempel,ID,Grupp,T10,T11,T12,T13,T14,T15,T16,T17,T18,T19,T1 aeg
1/11/2021 14:38:35,1610368442848,0,realistlik,jõhvikas,autentne,kadakas,sepp,riku,truu,puudus,hobune,piisad,109332
1/11/2021 14:45:09,1610368896407,1,realistlik,jõhvikas,autentne,kadakas,sepp,riku,truu,puudus,hobune,piisad,110879
1/11/2021 15:17:24,1610370752664,1,realistlik,jõhvikas,autentne,kadakas,sepp,laida,truu,puudus,hobune,piisad,127807
1/11/2021 15:17:29,1610370823727,1,realistlik,õun,autentne,kadakas,sepp,riku,truu,puudus,hobune,vihm,63541
1/11/2021 15:19:05,1610371094265,1,realistlik,õun,autentne,kadakas,sepp,riku,truu,puudus,hobune,vihm,24194
1/11/2021 15:30:15,1610371645037,1,realistlik,jõhvikas,autentne,kadakas,sepp,riku,truu,puudus,hobune,piisad,84552
1/11/2021 15:54:57,1610373233172,1,realistlik,jõhvikas,autentne,kadakas,sepp,riku,truu,puudus,hobune,piisad,29200
1/11/2021 16:29:27,1610374729112,0,realistlik,õun,autentne,mänd,sepp,riku,truu,puudus,veis,piisad,92603
1/11/2021 16:33:50,1610374757353,1,realistlik,jõhvikas,autentne,kadakas,sepp,riku,truu,puudus,hobune,piisad,70745
1/11/2021 16:33:54,1610375288526,1,realistlik,õun,plagiaat,kadakas,sepp,riku,truu,puudus,hobune,piisad,51724
1/11/2021 16:34:13,1610375453191,0,realistlik,jõhvikas,autentne,kadakas,sepp,riku,truu,puudus,hobune,piisad,135647
1/11/2021 16:49:08,1610376276444,1,realistlik,jõhvikas,autentne,kadakas,sepp,riku,truu,puudus,hobune,piisad,57705
1/11/2021 17:07:54,1610377497865,0,realistlik,jõhvikas,autentne,kadakas,sepp,riku,truu,puudus,hobune,piisad,106906
1/11/2021 17:37:20,1610379215274,0,realistlik,jõhvikas,autentne,kadakas,sepp,riku,truu,puudus,veis,piisad,125494
1/11/2021 19:00:56,1610384134069,1,realistlik,jõhvikas,autentne,kadakas,sepp,riku,truu,puudus,hobune,piisad,79784
1/11/2021 19:34:17,1610386218025,1,realistlik,jõhvikas,autentne,,sepp,riku,truu,puudus,,,142111
1/11/2021 19:37:31,1610386204002,1,realistlik,jõhvikas,autentne,kadakas,sepp,riku,truu,puudus,hobune,piisad,95485
1/11/2021 20:30:01,1610389659662,1,,,,,,,,,,,45
1/11/2021 20:33:33,1610389773147,0,realistlik,õun,plagiaat,kadakas,sepp,riku,truu,,,,142485
1/11/2021 21:54:56,1610394399178,1,realistlik,jõhvikas,autentne,kadakas,sepp,laida,truu,puudus,hobune,piisad,107474
1/12/2021 8:13:47,1610431894890,1,realistlik,jõhvikas,autentne,kadakas,sepp,riku,truu,puudus,hobune,piisad,66353
1/12/2021 8:24:38,1610432621479,1,realistlik,jõhvikas,autentne,kadakas,sepp,riku,truu,puudus,hobune,piisad,26956
1/12/2021 8:36:20,1610432976247,0,realistlik,jõhvikas,plagiaat,kadakas,sepp,riku,truu,puudus,hobune,piisad,116183
1/12/2021 12:39:56,1610447768651,0,realistlik,jõhvikas,autentne,kadakas,sepp,riku,truu,puudus,hobune,piisad,119828
1/12/2021 13:11:25,1610449678433,1,realistlik,jõhvikas,autentne,kadakas,sepp,riku,truu,puudus,hobune,piisad,70321
1/12/2021 15:17:28,1610457082921,1,realistlik,jõhvikas,plagiaat,kadakas,sepp,riku,truu,puudus,hobune,piisad,106221
1/12/2021 16:15:01,1610460831826,1,,,,,,,,,,,21
1/12/2021 16:23:44,1610460833856,0,maalähedane,jõhvikas,autentne,kadakas,sepp,riku,truu,puudus,hobune,piisad,115085
1/12/2021 16:27:03,1610461274700,1,realistlik,jõhvikas,autentne,kadakas,sepp,riku,truu,puudus,hobune,piisad,102667
1/12/2021 16:38:05,1610462104103,0,maalähedane,jõhvikas,autentne,kadakas,sepp,riku,truu,puudus,hobune,piisad,117910
1/12/2021 18:16:43,1610467348899,0,realistlik,jõhvikas,autentne,kadakas,sepp,laida,truu,puudus,hobune,piisa,91288
1/12/2021 21:43:05,1610480331370,0,realistlik,jõhvikas,autentne,kadakas,sepp,riku,truu,puudus,hobune,piisad,119893
1/13/2021 10:34:58,1610526739653,1,realistlik,jõhvikas,autentne,kadakas,tegija,riku,truu,puudus,hobune,piisad,76206
1/13/2021 12:51:44,1610534861025,1,realistlik,jõhvikas,särav,kadakas,sepp,riku,,puudus,hobune,,142118
1/13/2021 14:19:35,1610540091835,1,maalähedane,õun,autentne,kadakas,,,,,,,142108
1/14/2021 9:28:27,1610608875177,0,,,,,,,,,,,142204
1/14/2021 12:18:25,1610619278827,1,realistlik,jõhvikas,plagiaat,kadakas,sepp,riku,truu,puudus,hobune,piisad,63168
1/14/2021 14:59:08,1610628808419,1,realistlik,jõhvikas,autentne,kadakas,sepp,riku,truu,puudus,veis,piisad,70005
1/14/2021 19:14:06,1610637557297,0,realistlik,õun,autentne,kadakas,sepp,riku,truu,puudus,hobune,piisad,81223
1/14/2021 19:23:31,1610644854193,0,realistlik,jõhvikas,autentne,kadakas,sepp,riku,truu,puudus,hobune,piisad,125008
1/15/2021 9:49:25,1610696787265,0,maalähedane,jõhvikas,särav,kadakas,sepp,riku,truu,puudus,hobune,piisad,64901
1/15/2021 13:51:47,1610711156012,0,,,,,,,,,,,142165
1/15/2021 17:10:10,1610723191611,1,realistlik,jõhvikas,autentne,kadakas,sepp,riku,truu,puudus,hobune,piisad,86428
1/17/2021 15:14:21,1610663755746,0,maalähedane,jõhvikas,autentne,kadakas,looja,riku,truu,puudus,veis,piisad,136922
1/17/2021 21:15:22,1610910645391,0,maalähedane,õun,autentne,kuusk,sepp,kiida,truu,,,,142160
1/17/2021 22:03:32,1610913424222,0,realistlik,jõhvikas,plagiaat,kadakas,sepp,riku,truu,puudus,hobune,piisad,130627
1/17/2021 23:54:43,1610920256787,0,realistlik,jõhvikas,autentne,kadakas,sepp,riku,truu,puudus,hobune,piisad,139295
1/18/2021 0:35:25,1610922769583,1,realistlik,jõhvikas,autentne,kadakas,sepp,riku,truu,puudus,hobune,piisad,112724
1/18/2021 10:47:03,1610959453389,1,,,,,,,,,,,24
1/18/2021 10:56:04,1610959994385,1,realistlik,jõhvikas,autentne,kadakas,sepp,riku,truu,puudus,hirv,piisad,125521
1/18/2021 11:07:15,1610960758419,1,,,,,,,,,,,16318
1/18/2021 11:12:23,1610960956776,0,realistlik,jõhvikas,autentne,kadakas,sepp,riku,truu,puudus,hobune,piisad,130295
1/18/2021 21:57:46,1610999594394,0,realistlik,jõhvikas,plagiaat,kadakas,sepp,laida,truu,puudus,hobune,,142204
1/18/2021 22:13:00,1611000423218,1,täpne,jõhvikas,särav,kadakas,sepp,riku,truu,puudus,hobune,piisad,125437
1/19/2021 14:59:17,1611060798707,0,realistlik,jõhvikas,autentne,kadakas,sepp,riku,truu,puudus,,,142472
1/19/2021 16:23:05,1611065988684,1,realistlik,jõhvikas,autentne,kadakas,sepp,riku,truu,puudus,hobune,piisad,88958
1/19/2021 16:55:32,1611067918517,1,realistlik,õun,autentne,kadakas,sepp,riku,truu,puudus,hobune,piisad,86395
1/21/2021 11:45:06,1611222095643,0,realistlik,jõhvikas,särav,kadakas,sepp,riku,truu,puudus,hobune,piisad,109066
1/25/2021 7:26:01,1611552089188,1,realistlik,jõhvikas,autentne,kadakas,sepp,riku,truu,puudus,hobune,piisad,101540